<?xml version="1.0" encoding="UTF-8" standalone="no"?>
<svg
   version="1.1"
   viewBox="0 0 64 64"
   id="svg1153"
   sodipodi:docname="icon_dir_link.svg"
   width="64"
   height="64"
   inkscape:version="1.1 (c4e8f9ed74, 2021-05-24)"
   xmlns:inkscape="http://www.inkscape.org/namespaces/inkscape"
   xmlns:sodipodi="http://sodipodi.sourceforge.net/DTD/sodipodi-0.dtd"
   xmlns="http://www.w3.org/2000/svg"
   xmlns:svg="http://www.w3.org/2000/svg">
  <sodipodi:namedview
     id="namedview1155"
     pagecolor="#505050"
     bordercolor="#eeeeee"
     borderopacity="1"
     inkscape:pageshadow="0"
     inkscape:pageopacity="0"
     inkscape:pagecheckerboard="0"
     showgrid="false"
     inkscape:zoom="24.724092"
     inkscape:cx="34.156967"
     inkscape:cy="32.680674"
     inkscape:current-layer="svg1153" />
  <defs
     id="defs1123">
    <linearGradient
       id="linearGradient4178"
       x2="0"
       y1="541.79999"
       y2="499.78"
       gradientTransform="matrix(1.5,0,0,1.4995,-576.86,-725.43)"
       gradientUnits="userSpaceOnUse">
      <stop
         stop-color="#3daee9"
         offset="0"
         id="stop1118" />
      <stop
         stop-color="#6cc1ef"
         offset="1"
         id="stop1120" />
    </linearGradient>
  </defs>
  <g
     transform="matrix(0.64486856,0,0,0.64486856,-247.07782,-309.56795)"
     stroke-width="1.5"
     id="g1139">
    <path
       transform="translate(384.57,483.8)"
       d="m 6,9 -1.17e-5,21 H 89.999988 L 90,15 H 48 L 42,9 Z"
       fill="#147eb8"
       id="path1125" />
    <path
       transform="translate(384.57,483.8)"
       d="m 39,24 -6,6 H 5 V 87 H 91 V 24 Z"
       fill="url(#linearGradient4178)"
       id="path1127"
       style="fill:url(#linearGradient4178)" />
    <g
       fill-opacity="0.23529"
       id="g1137">
      <path
         d="m 389.57,513.8 v 1 h 29 l 5,-6.9998 -6,6 z"
         fill="#ffffff"
         fill-rule="evenodd"
         id="path1129" />
      <path
         d="m 390.57,512.8 v 1.0002 h 27 l 6,-6.0002 -7,5 z"
         fill-rule="evenodd"
         id="path1131" />
      <path
         transform="translate(384.57,483.8)"
         d="m 5,86 v 1 L 91,86.98372 V 86 Z"
         id="path1133" />
      <path
         transform="translate(384.57,483.8)"
         d="m 42,9 5,7 43,4e-6 v -1 H 48 Z"
         fill="#ffffff"
         fill-rule="evenodd"
         id="path1135" />
    </g>
  </g>
  <g
     id="g1546"
     transform="matrix(2.0145654,0,0,2.0145654,-129.03486,-103.60536)">
    <rect
       fill="#7f8c8d"
       height="10"
       ry="2"
       width="16"
       y="73.060608"
       id="rect3"
       x="79.676765"
       rx="2" />
    <path
       d="m 81.676768,73.060606 c -1.108,0 -2,0.892 -2,2 v 6 c 0,1.108 0.892,2 2,2 h 12 c 1.108,0 2,-0.892 2,-2 v -6 c 0,-1.108 -0.892,-2 -2,-2 z m 0,1 h 12 c 0.554,0 1,0.446 1,1 v 6 c 0,0.554 -0.446,1 -1,1 h -12 c -0.554,0 -1,-0.446 -1,-1 v -6 c 0,-0.554 0.446,-1 1,-1 z"
       style="color:#eff0f1;fill:currentColor;fill-opacity:0.6;stroke:none"
       class="ColorScheme-Text"
       id="path5" />
    <g
       fill="#ffffff"
       id="g11"
       transform="translate(79.676768,70.060606)">
      <rect
         height="2"
         ry="1"
         width="6"
         x="5"
         y="7"
         id="rect7"
         rx="1" />
      <path
         d="M 3,5 C 2.446,5 2,5.446 2,6 v 4 c 0,0.554 0.446,1 1,1 h 3 c 0.554,0 1,-0.446 1,-1 V 6 C 7,5.446 6.554,5 6,5 Z m 0,1 h 3 v 4 H 3 Z M 10,5 C 9.446,5 9,5.446 9,6 v 4 c 0,0.554 0.446,1 1,1 h 3 c 0.554,0 1,-0.446 1,-1 V 6 C 14,5.446 13.554,5 13,5 Z m 0,1 h 3 v 4 h -3 z"
         id="path9" />
    </g>
  </g>
</svg>
